Take-home Exercise 3: Spatiotemporal Rainfall Analysis – ISSS608-VAA
…
4. Temporal Rainfall Analysis

# Create monthly time series object
monthly_station_rain <- weather_active %>%
  mutate(MonthYear = floor_date(Date, "month")) %>%
  group_by(Station, MonthYear) %>%
  summarise(MonthlyRain = sum(Daily.Rainfall.Total..mm.))

monthly_station_rain <- monthly_station_rain %>%
  mutate(MonthYear = yearmonth(MonthYear)) %>%
  as_tsibble(index = MonthYear, key = Station)

monthly_station_rain

# A tsibble: 2,213 x 3 [1M]
# Key:       Station [27]
# Groups:    Station [27]
   Station        MonthYear MonthlyRain
   <fct>              <mth>       <dbl>
 1 Botanic Garden  2018 Jan       404. 
 2 Botanic Garden  2018 Feb        22.2
 3 Botanic Garden  2018 Mar       222  
 4 Botanic Garden  2018 Apr       229. 
 5 Botanic Garden  2018 May       219  
 6 Botanic Garden  2018 Jun       296. 
 7 Botanic Garden  2018 Jul        95.2
 8 Botanic Garden  2018 Aug       120. 
 9 Botanic Garden  2018 Sep       227. 
10 Botanic Garden  2018 Oct       200. 
# ℹ 2,203 more rows
…
